DataFest 2017 Data Munging with R and dplyr
…
summarise()

flights %>% mutate(date = paste(month,day,year,sep="/") %>% mdy()) %>% 
            summarize(n(), min(date), max(date))

## # A tibble: 1  3
##    `n()` `min(date)` `max(date)`
##    <int>      <date>      <date>
## 1 336776  2013-01-01  2013-12-31

group_by()

flights %>% group_by(origin)

## Source: local data frame [336,776 x 19]
## Groups: origin [3]
## 
##     year month   day dep_time sched_dep_time dep_delay arr_time sched_arr_time arr_delay carrier
##    <int> <int> <int>    <int>          <int>     <dbl>    <int>          <int>     <dbl>   <chr>
## 1   2013     1     1      517            515         2      830            819        11      UA
## 2   2013     1     1      533            529         4      850            830        20      UA
## 3   2013     1     1      542            540         2      923            850        33      AA
## 4   2013     1     1      544            545        -1     1004           1022       -18      B6
## 5   2013     1     1      554            600        -6      812            837       -25      DL
## 6   2013     1     1      554            558        -4      740            728        12      UA
## 7   2013     1     1      555            600        -5      913            854        19      B6
## 8   2013     1     1      557            600        -3      709            723       -14      EV
## 9   2013     1     1      557            600        -3      838            846        -8      B6
## 10  2013     1     1      558            600        -2      753            745         8      AA
## # ... with 336,766 more rows, and 9 more variables: flight <int>, tailnum <chr>, origin <chr>,
## #   dest <chr>, air_time <dbl>, distance <dbl>, hour <dbl>, minute <dbl>, time_hour <dttm>
…
Example 3

Find the five longest arrival delays for each carrier.

flights %>% 
  group_by(carrier) %>% 
  arrange(desc(arr_delay)) %>% 
  slice(1:5)

## Source: local data frame [80 x 19]
## Groups: carrier [16]
## 
##     year month   day dep_time sched_dep_time dep_delay arr_time sched_arr_time arr_delay carrier
##    <int> <int> <int>    <int>          <int>     <dbl>    <int>          <int>     <dbl>   <chr>
## 1   2013     2    16      757           1930       747     1013           2149       744      9E
## 2   2013     7    24     1525            815       430     1808           1030       458      9E
## 3   2013     7    10     2054           1459       355      102           1801       421      9E
## 4   2013    11    27     1503            815       408     1628            952       396      9E
## 5   2013    12    14     1425            825       360     1604            938       386      9E
## 6   2013     9    20     1139           1845      1014     1457           2210      1007      AA
## 7   2013    12     5      756           1700       896     1058           2020       878      AA
## 8   2013     5    19      713           1700       853     1007           1955       852      AA
## 9   2013    12    17      705           1700       845     1026           2020       846      AA
## 10  2013     6    27      753           1830       803      937           2015       802      AA
## # ... with 70 more rows, and 9 more variables: flight <int>, tailnum <chr>, origin <chr>,
## #   dest <chr>, air_time <dbl>, distance <dbl>, hour <dbl>, minute <dbl>, time_hour <dttm>

Example 4

Find the 3 longest departure delays for each route (identified by the origin and destination pair) in the summer months (June – August)

flights %>%
  filter(month >= 6 & month <= 8) %>%
  group_by(origin,dest) %>%
  arrange(desc(dep_delay)) %>%
  slice(1:3)

## Source: local data frame [591 x 19]
## Groups: origin, dest [201]
## 
##     year month   day dep_time sched_dep_time dep_delay arr_time sched_arr_time arr_delay carrier
##    <int> <int> <int>    <int>          <int>     <dbl>    <int>          <int>     <dbl>   <chr>
## 1   2013     7    13     1011            730       161     1118            835       163      EV
## 2   2013     6     5     1347           1107       160     1437           1212       145      EV
## 3   2013     6     8      938            751       107     1027            856        91      EV
## 4   2013     8    17     1740           1625        75     2042           2003        39      UA
## 5   2013     7     6     1629           1615        14     1954           1953         1      UA
## 6   2013     8    24     1633           1625         8     1959           2003        -4      UA
## 7   2013     6    28      121           1659       502      329           1919       490      DL
## 8   2013     6    28      154           1820       454      405           2051       434      DL
## 9   2013     7    27     2011           1300       431     2253           1519       454      EV
## 10  2013     7    10     2056           1505       351     2347           1758       349      UA
## # ... with 581 more rows, and 9 more variables: flight <int>, tailnum <chr>, origin <chr>,
## #   dest <chr>, air_time <dbl>, distance <dbl>, hour <dbl>, minute <dbl>, time_hour <dttm>
…
